CPU项目小组[4]_RISC_CPU设计/project_vivado/project_8.2/project_8.2.sim/sim_1/behav/xsim/rv32i_cpu_wave.vcd
$date
   Tue Dec  9 09:13:39 2025
$end
$version
  2019.1
$end
$timescale
  1ps
$end
$scope module tb_rv32i_cpu $end
$var reg 1 ! clk $end
$var reg 1 " rst_n $end
$var reg 1 # calc_start $end
$var reg 32 $ gcd_a [31:0] $end
$var reg 32 % gcd_b [31:0] $end
$var wire 1 & start $end
$var wire 1 ' result $end
$var wire 32 ( gcd_result [31:0] $end
$scope module dut $end
$var wire 1 ) clk $end
$var wire 1 * rst_n $end
$var wire 1 + calc_start $end
$var wire 32 , gcd_a [31:0] $end
$var wire 32 - gcd_b [31:0] $end
$var wire 1 & start $end
$var wire 1 ' result $end
$var wire 32 ( gcd_result [31:0] $end
$var wire 1 . pc_taken $end
$var wire 32 / next_pc [31:0] $end
$var wire 32 0 pc [31:0] $end
$var wire 32 1 instr [31:0] $end
$var wire 7 2 opcode [6:0] $end
$var wire 3 3 funct3 [2:0] $end
$var wire 7 4 funct7 [6:0] $end
$var wire 5 5 rs1 [4:0] $end
$var wire 5 6 rs2 [4:0] $end
$var wire 5 7 rd [4:0] $end
$var wire 2 8 imm_type [1:0] $end
$var wire 32 9 imm [31:0] $end
$var wire 1 : alu_src $end
$var wire 1 ; mem_read $end
$var wire 1 < mem_write $end
$var wire 2 = mem_to_reg [1:0] $end
$var wire 1 > reg_write $end
$var wire 1 ? branch $end
$var wire 1 @ jump $end
$var wire 1 A is_jalr $end
$var wire 2 B alu_op_main [1:0] $end
$var wire 32 C rs1_data [31:0] $end
$var wire 32 D rs2_data [31:0] $end
$var wire 4 E alu_op [3:0] $end
$var wire 32 F op_b [31:0] $end
$var wire 32 G alu_result [31:0] $end
$var wire 1 H zero $end
$var wire 1 I eq $end
$var wire 1 J lt $end
$var wire 1 K ltu $end
$scope module rv32i_pc_reg $end
$var wire 1 ) clk $end
$var wire 1 * rst_n $end
$var wire 32 / next_pc [31:0] $end
$var reg 32 L pc [31:0] $end
$upscope $end
$scope module rv32i_instr_mem $end
$var wire 32 0 addr [31:0] $end
$var wire 32 1 instr [31:0] $end
$upscope $end
$scope module rv32i_instr_decoder $end
$var wire 32 1 instr [31:0] $end
$var wire 7 2 opcode [6:0] $end
$var wire 5 7 rd [4:0] $end
$var wire 3 3 funct3 [2:0] $end
$var wire 5 5 rs1 [4:0] $end
$var wire 5 6 rs2 [4:0] $end
$var wire 7 4 funct7 [6:0] $end
$upscope $end
$scope module rv32i_imm_gen $end
$var wire 32 1 instr [31:0] $end
$var wire 2 8 imm_type [1:0] $end
$var reg 32 M imm_out [31:0] $end
$upscope $end
$scope module rv32i_control $end
$var wire 7 2 opcode [6:0] $end
$var reg 1 N alu_src $end
$var reg 1 O mem_read $end
$var reg 1 P mem_write $end
$var reg 2 Q mem_to_reg [1:0] $end
$var reg 1 R reg_write $end
$var reg 1 S branch $end
$var reg 1 T jump $end
$var reg 1 U is_jalr $end
$var reg 2 V imm_type [1:0] $end
$var reg 2 W alu_op_main [1:0] $end
$upscope $end
$scope module rv32i_alu_control $end
$var wire 2 B alu_op_main [1:0] $end
$var wire 3 3 funct3 [2:0] $end
$var wire 7 4 funct7 [6:0] $end
$var reg 4 X alu_op [3:0] $end
$var parameter 2 Y ALU_OP_MAIN_S [1:0] $end
$var parameter 2 Z ALU_OP_MAIN_RI [1:0] $end
$var parameter 2 [ ALU_OP_MAIN_B [1:0] $end
$var parameter 2 \ ALU_OP_MAIN_J [1:0] $end
$upscope $end
$scope module rv32i_alu_opb_mux $end
$var wire 1 : alu_src $end
$var wire 32 D rs2_data [31:0] $end
$var wire 32 9 imm [31:0] $end
$var wire 32 F op_b [31:0] $end
$upscope $end
$scope module rv32i_reg_file $end
$var wire 1 ) clk $end
$var wire 1 * rst_n $end
$var wire 5 5 rs1_addr [4:0] $end
$var wire 5 6 rs2_addr [4:0] $end
$var reg 32 ] rs1_data [31:0] $end
$var reg 32 ^ rs2_data [31:0] $end
$var wire 1 > rd_we $end
$var wire 5 7 rd_addr [4:0] $end
$var wire 32 G rd_data [31:0] $end
$var wire 1 + calc_start $end
$var wire 32 , gcd_a [31:0] $end
$var wire 32 - gcd_b [31:0] $end
$var reg 32 _ gcd_result [31:0] $end
$var integer 32 ` i $end
$var parameter 5 a REG_GCD_A [4:0] $end
$var parameter 5 b REG_GCD_B [4:0] $end
$var parameter 5 c REG_GCD_RESULT [4:0] $end
$var parameter 5 d REG_GCD_START [4:0] $end
$upscope $end
$scope module rv32i_alu $end
$var wire 32 C op_a [31:0] $end
$var wire 32 F op_b [31:0] $end
$var wire 4 E alu_op [3:0] $end
$var reg 32 e result [31:0] $end
$var wire 1 H zero $end
$var wire 1 I eq $end
$var wire 1 J lt $end
$var wire 1 K ltu $end
$upscope $end
$scope module rv32i_branch_unit $end
$var wire 1 ? branch $end
$var wire 1 @ jump $end
$var wire 3 3 funct3 [2:0] $end
$var wire 32 0 pc_current [31:0] $end
$var wire 32 C rs1_data [31:0] $end
$var wire 32 D rs2_data [31:0] $end
$var wire 32 9 imm [31:0] $end
$var wire 1 A is_jalr $end
$var reg 32 f pc_next [31:0] $end
$var wire 1 . pc_taken $end
$var reg 1 g condition $end
$var wire 32 h pc_target [31:0] $end
$upscope $end
$scope module rv32i_rd_data_mux $end
$var wire 32 G alu_result [31:0] $end
$var wire 32 i mem_read_data [31:0] $end
$var wire 32 0 pc_current [31:0] $end
$var wire 2 = mem_to_reg [1:0] $end
$var reg 32 j rd_data [31:0] $end
$upscope $end
$upscope $end
$upscope $end
$enddefinitions $end
#0
$dumpvars
0!
0"
0#
b11000 $
b1111 %
0&
0'
b0 (
0)
0*
0+
b11000 ,
b1111 -
0.
b100 /
b0 0
b10000000000010000000000010001 1
b10001 2
b0 3
b1000 4
b10 5
b0 6
b0 7
b0 8
b100000000 9
0:
0;
0<
b0 =
0>
0?
0@
0A
b0 B
b0 C
b0 D
b0 E
b0 F
b0 G
1H
1I
0J
0K
b0 L
b100000000 M
0N
0O
0P
b0 Q
0R
0S
0T
0U
b0 V
b0 W
b0 X
b0 Y
b1 Z
b10 [
b11 \
b0 ]
b0 ^
b0 _
bx `
b11100 a
b11101 b
b11110 c
b11111 d
b0 e
b100 f
0g
b100000000 h
b0 i
b0 j
$end
#5000
1!
1)
#10000
0!
0)
#15000
1!
1)
#20000
0!
0)
#25000
1!
1)
#30000
0!
0)
#35000
1!
1)
#40000
0!
0)
#45000
1!
1)
#50000
0!
0)
#55000
1!
1)
#60000
0!
0)
#65000
1!
1)
#70000
0!
0)
#75000
1!
1)
#80000
0!
0)
#85000
1!
1)
#90000
0!
0)
#95000
1!
1)
#100000
0!
1"
0)
1*
#105000
1!
1)
b1000 /
b100 0
b10000000000010000000000010001 1
b100 L
b1000 f
b100000100 h
#110000
0!
0)
#115000
1!
1)
b1100 /
b1000 0
b10001000100000000000000010001 1
b0 5
b10001 6
b100010001 9
b0 F
b1000 L
b100010001 M
b0 ]
b0 ^
b1100 f
b100011001 h
#120000
0!
0)
#125000
1!
1)
b10000 /
b1100 0
b10000000000010001 1
b0 4
b10 5
b0 6
b0 9
b0 F
b1100 L
b0 M
b0 X
b0 ]
b0 ^
b10000 f
b1100 h
#130000
0!
0)
#135000
1!
1)
b10100 /
b10000 0
b10000000000010000000000010001 1
b1000 4
b100000000 9
b0 F
b10000 L
b100000000 M
b0 X
b10100 f
b100010000 h
#140000
0!
0)
#145000
1!
1)
b11000 /
b10100 0
b10001000100000001000100010001 1
b1 3
b0 5
b10001 6
b10 7
b100010001 9
b0 F
b10100 L
b100010001 M
b0 X
b0 ]
b0 ^
b11000 f
b100100101 h
#150000
0!
1#
1&
0)
1+
b0 ]
b0 ^
#155000
1!
1)
b11100 /
b11000 0
b10000000000010001 1
b0 3
b0 4
b10 5
b0 6
b0 7
b0 9
b0 F
b11000 L
b0 M
b0 X
b0 ]
b0 ^
b11100 f
b11000 h
#160000
0!
0)
#165000
1!
1)
b100000 /
b11100 0
b1000100000001000100010001 1
b1 3
b0 5
b10001 6
b10 7
b10001 9
b0 F
b11100 L
b10001 M
b0 X
b0 ]
b0 ^
b100000 f
b101101 h
#170000
0!
0#
0&
0)
0+
b0 ]
b0 ^
#175000
1!
1)
b100100 /
b100000 0
b1000100000000000000010001 1
b0 3
b0 7
b100000 L
b10001 M
b0 X
b100100 f
b110001 h
#180000
0!
0)
#185000
1!
1)
b101000 /
b100100 0
b10000000000010001 1
b10 5
b0 6
b0 9
b0 F
b100100 L
b0 M
b0 ]
b0 ^
b101000 f
b100100 h
#190000
0!
0)
#195000
1!
1)
b101100 /
b101000 0
b1000100000000000000010001 1
b0 5
b10001 6
b10001 9
b0 F
b101000 L
b10001 M
b0 ]
b0 ^
b101100 f
b111001 h
#200000
0!
0)
#205000
1!
1)
b110000 /
b101100 0
b100010000000000010001 1
b10 5
b1 6
b1 9
b0 F
b101100 L
b1 M
b0 ]
b0 ^
b110000 f
b101101 h
#210000
0!
0)
#215000
1!
1)
b110100 /
b110000 0
b1000100000001000100010001 1
b1 3
b0 5
b10001 6
b10 7
b10001 9
b0 F
b110000 L
b10001 M
b0 X
b0 ]
b0 ^
b110100 f
b1000001 h
#220000
0!
0)
#225000
1!
1)
b111000 /
b110100 0
b10000000000010001 1
b0 3
b10 5
b0 6
b0 7
b0 9
b0 F
b110100 L
b0 M
b0 X
b0 ]
b0 ^
b111000 f
b110100 h
#230000
0!
0)
#235000
1!
1)
b111100 /
b111000 0
b10000000000010000000000010001 1
b1000 4
b100000000 9
b0 F
b111000 L
b100000000 M
b0 X
b111100 f
b100111000 h
#240000
0!
0)
#245000
1!
1)
b1000000 /
b111100 0
b1000100000001000100010001 1
b1 3
b0 4
b0 5
b10001 6
b10 7
b10001 9
b0 F
b111100 L
b10001 M
b0 X
b0 ]
b0 ^
b1000000 f
b1001101 h
#250000
0!
0)
#255000
1!
1)
b1000100 /
b1000000 0
b1000100000000000100010001 1
b0 3
b1000000 L
b10001 M
b0 X
b1000100 f
b1010001 h
#260000
0!
0)
#265000
1!
1)
b1001000 /
b1000100 0
bx 1
bx 2
bx 3
bx 4
bx 5
bx 6
bx 7
bx 9
bx C
bx D
bx F
bx G
xH
xI
xJ
xK
b1000100 L
bx M
0N
0O
0P
b0 Q
0R
0S
0T
0U
b0 V
b0 W
b0 X
bx ]
bx ^
bx e
b1001000 f
bx h
#270000
0!
0)
#275000
1!
1)
b1001100 /
b1001000 0
bx 1
b1001000 L
b1001100 f
bx h
#280000
0!
0)
#285000
1!
1)
b1010000 /
b1001100 0
bx 1
b1001100 L
b1010000 f
bx h
#290000
0!
0)
#295000
1!
1)
b1010100 /
b1010000 0
bx 1
b1010000 L
b1010100 f
bx h
#300000
0!
0)
#305000
1!
1)
b1011000 /
b1010100 0
bx 1
b1010100 L
b1011000 f
bx h
#310000
0!
0)
#315000
1!
1)
b1011100 /
b1011000 0
bx 1
b1011000 L
b1011100 f
bx h
#320000
0!
0)
#325000
1!
1)
b1100000 /
b1011100 0
bx 1
b1011100 L
b1100000 f
bx h
#330000
0!
0)
#335000
1!
1)
b1100100 /
b1100000 0
bx 1
b1100000 L
b1100100 f
bx h
#340000
0!
0)
#345000
1!
1)
b1101000 /
b1100100 0
bx 1
b1100100 L
b1101000 f
bx h
#350000
0!
0)
#355000
1!
1)
b1101100 /
b1101000 0
bx 1
b1101000 L
b1101100 f
bx h
#360000
0!
0)
#365000
1!
1)
b1110000 /
b1101100 0
bx 1
b1101100 L
b1110000 f
bx h
#370000
0!
0)
#375000
1!
1)
b1110100 /
b1110000 0
bx 1
b1110000 L
b1110100 f
bx h
#380000
0!
0)
#385000
1!
1)
b1111000 /
b1110100 0
bx 1
b1110100 L
b1111000 f
bx h
#390000
0!
0)
#395000
1!
1)
b1111100 /
b1111000 0
bx 1
b1111000 L
b1111100 f
bx h
#400000
0!
0)
#405000
1!
1)
b10000000 /
b1111100 0
bx 1
b1111100 L
b10000000 f
bx h
#410000
0!
0)
#415000
1!
1)
b10000100 /
b10000000 0
bx 1
b10000000 L
b10000100 f
bx h
#420000
0!
0)
#425000
1!
1)
b10001000 /
b10000100 0
bx 1
b10000100 L
b10001000 f
bx h
#430000
0!
0)
#435000
1!
1)
b10001100 /
b10001000 0
bx 1
b10001000 L
b10001100 f
bx h
#440000
0!
0)
#445000
1!
1)
b10010000 /
b10001100 0
bx 1
b10001100 L
b10010000 f
bx h
#450000
0!
0)
#455000
1!
1)
b10010100 /
b10010000 0
bx 1
b10010000 L
b10010100 f
bx h
#460000
0!
0)
#465000
1!
1)
b10011000 /
b10010100 0
bx 1
b10010100 L
b10011000 f
bx h
#470000
0!
0)
#475000
1!
1)
b10011100 /
b10011000 0
bx 1
b10011000 L
b10011100 f
bx h
#480000
0!
0)
#485000
1!
1)
b10100000 /
b10011100 0
bx 1
b10011100 L
b10100000 f
bx h
#490000
0!
0)
#495000
1!
1)
b10100100 /
b10100000 0
bx 1
b10100000 L
b10100100 f
bx h
#500000
0!
0)
#505000
1!
1)
b10101000 /
b10100100 0
bx 1
b10100100 L
b10101000 f
bx h
#510000
0!
0)
#515000
1!
1)
b10101100 /
b10101000 0
bx 1
b10101000 L
b10101100 f
bx h
#520000
0!
0)
#525000
1!
1)
b10110000 /
b10101100 0
bx 1
b10101100 L
b10110000 f
bx h
#530000
0!
0)
#535000
1!
1)
b10110100 /
b10110000 0
bx 1
b10110000 L
b10110100 f
bx h
#540000
0!
0)
#545000
1!
1)
b10111000 /
b10110100 0
bx 1
b10110100 L
b10111000 f
bx h
#550000
0!
0)
#555000
1!
1)
b10111100 /
b10111000 0
bx 1
b10111000 L
b10111100 f
bx h
#560000
0!
0)
#565000
1!
1)
b11000000 /
b10111100 0
bx 1
b10111100 L
b11000000 f
bx h
#570000
0!
0)
#575000
1!
1)
b11000100 /
b11000000 0
bx 1
b11000000 L
b11000100 f
bx h
#580000
0!
0)
#585000
1!
1)
b11001000 /
b11000100 0
bx 1
b11000100 L
b11001000 f
bx h
#590000
0!
0)
#595000
1!
1)
b11001100 /
b11001000 0
bx 1
b11001000 L
b11001100 f
bx h
#600000
0!
0)
#605000
1!
1)
b11010000 /
b11001100 0
bx 1
b11001100 L
b11010000 f
bx h
#610000
0!
0)
#615000
1!
1)
b11010100 /
b11010000 0
bx 1
b11010000 L
b11010100 f
bx h
#620000
0!
0)
#625000
1!
1)
b11011000 /
b11010100 0
bx 1
b11010100 L
b11011000 f
bx h
#630000
0!
0)
#635000
1!
1)
b11011100 /
b11011000 0
bx 1
b11011000 L
b11011100 f
bx h
#640000
0!
0)
#645000
1!
1)
b11100000 /
b11011100 0
bx 1
b11011100 L
b11100000 f
bx h
#650000
0!
0)
#655000
1!
1)
b11100100 /
b11100000 0
bx 1
b11100000 L
b11100100 f
bx h
#660000
0!
0)
#665000
1!
1)
b11101000 /
b11100100 0
bx 1
b11100100 L
b11101000 f
bx h
#670000
0!
0)
#675000
1!
1)
b11101100 /
b11101000 0
bx 1
b11101000 L
b11101100 f
bx h
#680000
0!
0)
#685000
1!
1)
b11110000 /
b11101100 0
bx 1
b11101100 L
b11110000 f
bx h
#690000
0!
0)
#695000
1!
1)
b11110100 /
b11110000 0
bx 1
b11110000 L
b11110100 f
bx h
#700000
0!
0)
#705000
1!
1)
b11111000 /
b11110100 0
bx 1
b11110100 L
b11111000 f
bx h
#710000
0!
0)
#715000
1!
1)
b11111100 /
b11111000 0
bx 1
b11111000 L
b11111100 f
bx h
#720000
0!
0)
#725000
1!
1)
b100000000 /
b11111100 0
bx 1
b11111100 L
b100000000 f
bx h
#730000
0!
0)
#735000
1!
1)
b100000100 /
b100000000 0
bx 1
b100000000 L
b100000100 f
bx h
#740000
0!
0)
#745000
1!
1)
b100001000 /
b100000100 0
bx 1
b100000100 L
b100001000 f
bx h
#750000
0!
0)
#755000
1!
1)
b100001100 /
b100001000 0
bx 1
b100001000 L
b100001100 f
bx h
#760000
0!
0)
#765000
1!
1)
b100010000 /
b100001100 0
bx 1
b100001100 L
b100010000 f
bx h
#770000
0!
0)
#775000
1!
1)
b100010100 /
b100010000 0
bx 1
b100010000 L
b100010100 f
bx h
#780000
0!
0)
#785000
1!
1)
b100011000 /
b100010100 0
bx 1
b100010100 L
b100011000 f
bx h
#790000
0!
0)
#795000
1!
1)
b100011100 /
b100011000 0
bx 1
b100011000 L
b100011100 f
bx h
#800000
0!
0)
#805000
1!
1)
b100100000 /
b100011100 0
bx 1
b100011100 L
b100100000 f
bx h
#810000
0!
0)
#815000
1!
1)
b100100100 /
b100100000 0
bx 1
b100100000 L
b100100100 f
bx h
#820000
0!
0)
#825000
1!
1)
b100101000 /
b100100100 0
bx 1
b100100100 L
b100101000 f
bx h
#830000
0!
0)
#835000
1!
1)
b100101100 /
b100101000 0
bx 1
b100101000 L
b100101100 f
bx h
#840000
0!
0)
#845000
1!
1)
b100110000 /
b100101100 0
bx 1
b100101100 L
b100110000 f
bx h
#850000
0!
0)
#855000
1!
1)
b100110100 /
b100110000 0
bx 1
b100110000 L
b100110100 f
bx h
#860000
0!
0)
#865000
1!
1)
b100111000 /
b100110100 0
bx 1
b100110100 L
b100111000 f
bx h
#870000
0!
0)
#875000
1!
1)
b100111100 /
b100111000 0
bx 1
b100111000 L
b100111100 f
bx h
#880000
0!
0)
#885000
1!
1)
b101000000 /
b100111100 0
bx 1
b100111100 L
b101000000 f
bx h
#890000
0!
0)
#895000
1!
1)
b101000100 /
b101000000 0
bx 1
b101000000 L
b101000100 f
bx h
#900000
0!
0)
#905000
1!
1)
b101001000 /
b101000100 0
bx 1
b101000100 L
b101001000 f
bx h
#910000
0!
0)
#915000
1!
1)
b101001100 /
b101001000 0
bx 1
b101001000 L
b101001100 f
bx h
#920000
0!
0)
#925000
1!
1)
b101010000 /
b101001100 0
bx 1
b101001100 L
b101010000 f
bx h
#930000
0!
0)
#935000
1!
1)
b101010100 /
b101010000 0
bx 1
b101010000 L
b101010100 f
bx h
#940000
0!
0)
#945000
1!
1)
b101011000 /
b101010100 0
bx 1
b101010100 L
b101011000 f
bx h
#950000
0!
0)
#955000
1!
1)
b101011100 /
b101011000 0
bx 1
b101011000 L
b101011100 f
bx h
#960000
0!
0)
#965000
1!
1)
b101100000 /
b101011100 0
bx 1
b101011100 L
b101100000 f
bx h
#970000
0!
0)
#975000
1!
1)
b101100100 /
b101100000 0
bx 1
b101100000 L
b101100100 f
bx h
#980000
0!
0)
#985000
1!
1)
b101101000 /
b101100100 0
bx 1
b101100100 L
b101101000 f
bx h
#990000
0!
0)
#995000
1!
1)
b101101100 /
b101101000 0
bx 1
b101101000 L
b101101100 f
bx h
