CPU项目小组[4]_RISC_CPU设计/project_vivado/project_8.2/project_8.2.sim/sim_1/behav/xsim/tb_rv32i_cpu.vcd
$date
   Tue Dec  9 22:18:18 2025
$end
$version
  2019.1
$end
$timescale
  1ps
$end
$scope module tb_rv32i_cpu $end
$var reg 1 ! clk $end
$var reg 1 " rst_n $end
$var wire 32 # pc_out [31:0] $end
$var reg 32 $ gcd_a_monitor [31:0] $end
$var reg 32 % gcd_b_monitor [31:0] $end
$scope module uut $end
$var wire 1 & clk $end
$var wire 1 ' rst_n $end
$var wire 32 # pc_out [31:0] $end
$var wire 1 ( forward_a_ex $end
$var wire 1 ) forward_b_ex $end
$var wire 1 * stall_if_id $end
$var wire 1 + flush_if_id $end
$var wire 32 , pc_if [31:0] $end
$var wire 32 - instr_if [31:0] $end
$var wire 32 . pc_plus_4_if [31:0] $end
$var wire 32 / next_pc [31:0] $end
$var reg 32 0 instr_id [31:0] $end
$var reg 32 1 pc_id [31:0] $end
$var wire 7 2 opcode_id [6:0] $end
$var wire 3 3 funct3_id [2:0] $end
$var wire 7 4 funct7_id [6:0] $end
$var wire 5 5 rs1_id [4:0] $end
$var wire 5 6 rs2_id [4:0] $end
$var wire 5 7 rd_id [4:0] $end
$var wire 32 8 imm_id [31:0] $end
$var wire 32 9 rs1_data_id [31:0] $end
$var wire 32 : rs2_data_id [31:0] $end
$var wire 1 ; alu_src_id $end
$var wire 2 < mem_to_reg_id [1:0] $end
$var wire 1 = reg_write_id $end
$var wire 1 > mem_read_id $end
$var wire 1 ? mem_write_id $end
$var wire 1 @ branch_id $end
$var wire 1 A jump_id $end
$var wire 2 B alu_op_main_id [1:0] $end
$var wire 1 C is_jalr_id $end
$var wire 2 D imm_type_id [1:0] $end
$var reg 32 E pc_ex [31:0] $end
$var reg 32 F rs1_data_ex [31:0] $end
$var reg 32 G rs2_data_ex [31:0] $end
$var reg 32 H imm_ex [31:0] $end
$var reg 5 I rs1_ex [4:0] $end
$var reg 5 J rs2_ex [4:0] $end
$var reg 5 K rd_ex [4:0] $end
$var reg 3 L funct3_ex [2:0] $end
$var reg 7 M funct7_ex [6:0] $end
$var reg 1 N alu_src_ex $end
$var reg 2 O alu_op_main_ex [1:0] $end
$var reg 1 P reg_write_mem $end
$var reg 2 Q mem_to_reg_mem [1:0] $end
$var reg 1 R mem_read_mem $end
$var reg 1 S mem_write_mem $end
$var wire 4 T alu_op_ex [3:0] $end
$var wire 32 U alu_op_a [31:0] $end
$var wire 32 V alu_op_b [31:0] $end
$var wire 32 W alu_result_ex [31:0] $end
$var wire 1 X zero_ex $end
$var reg 32 Y alu_result_mem [31:0] $end
$var reg 32 Z rs2_data_mem [31:0] $end
$var reg 5 [ rd_mem [4:0] $end
$var reg 32 \ alu_result_wb [31:0] $end
$var reg 32 ] mem_read_data_wb [31:0] $end
$var reg 5 ^ rd_wb [4:0] $end
$var reg 1 _ reg_write_wb $end
$var reg 2 ` mem_to_reg_wb [1:0] $end
$var wire 32 a rd_data_wb [31:0] $end
$var wire 32 b mem_read_data [31:0] $end
$var wire 1 c alu_opb_sel_ex $end
$var wire 1 d alu_opb_ex $end
$var wire 1 e branch_ex $end
$var wire 1 f jump_ex $end
$var wire 1 g is_jalr_ex $end
$var wire 1 h branch_target_ex $end
$var wire 1 i branch_taken_ex $end
$var wire 1 j forwarded_b_data $end
$var wire 1 k forwarded_a_data $end
$scope module forwarding_unit $end
$var wire 5 l rs1_ex [4:0] $end
$var wire 5 m rs2_ex [4:0] $end
$var wire 5 n rd_mem [4:0] $end
$var wire 1 o reg_write_mem $end
$var wire 5 p rd_wb [4:0] $end
$var wire 1 q reg_write_wb $end
$var reg 2 r forward_a [1:0] $end
$var reg 2 s forward_b [1:0] $end
$upscope $end
$scope module pc_reg_unit $end
$var wire 1 & clk $end
$var wire 1 ' rst_n $end
$var wire 1 t en $end
$var wire 32 / next_pc [31:0] $end
$var reg 32 u pc [31:0] $end
$upscope $end
$scope module instr_mem_unit $end
$var wire 32 v addr [31:0] $end
$var wire 32 - instr [31:0] $end
$upscope $end
$scope module decoder_unit $end
$var wire 32 w instr [31:0] $end
$var wire 7 2 opcode [6:0] $end
$var wire 5 7 rd [4:0] $end
$var wire 3 3 funct3 [2:0] $end
$var wire 5 5 rs1 [4:0] $end
$var wire 5 6 rs2 [4:0] $end
$var wire 7 4 funct7 [6:0] $end
$upscope $end
$scope module control_unit $end
$var wire 7 2 opcode [6:0] $end
$var reg 1 x alu_src $end
$var reg 1 y mem_read $end
$var reg 1 z mem_write $end
$var reg 2 { mem_to_reg [1:0] $end
$var reg 1 | reg_write $end
$var reg 1 } branch $end
$var reg 1 ~ jump $end
$var reg 1 !! is_jalr $end
$var reg 2 "! imm_type [1:0] $end
$var reg 2 #! alu_op_main [1:0] $end
$upscope $end
$scope module imm_gen_unit $end
$var wire 32 $! instr [31:0] $end
$var wire 2 D imm_type [1:0] $end
$var reg 32 %! imm_out [31:0] $end
$upscope $end
$scope module reg_file_unit $end
$var wire 1 & clk $end
$var wire 1 ' rst_n $end
$var wire 5 5 rs1_addr [4:0] $end
$var wire 5 6 rs2_addr [4:0] $end
$var wire 32 9 rs1_data [31:0] $end
$var wire 32 : rs2_data [31:0] $end
$var wire 1 &! rd_we $end
$var wire 5 '! rd_addr [4:0] $end
$var wire 32 a rd_data [31:0] $end
$var reg 32 (! gcd_result [31:0] $end
$var integer 32 )! i $end
$upscope $end
$scope module alu_control_unit $end
$var wire 2 *! alu_op_main [1:0] $end
$var wire 3 +! funct3 [2:0] $end
$var wire 7 ,! funct7 [6:0] $end
$var reg 4 -! alu_op [3:0] $end
$var parameter 2 .! ALU_OP_MAIN_S [1:0] $end
$var parameter 2 /! ALU_OP_MAIN_RI [1:0] $end
$var parameter 2 0! ALU_OP_MAIN_B [1:0] $end
$var parameter 2 1! ALU_OP_MAIN_J [1:0] $end
$upscope $end
$scope module alu_unit $end
$var wire 32 U op_a [31:0] $end
$var wire 32 V op_b [31:0] $end
$var wire 4 T alu_op [3:0] $end
$var reg 32 2! result [31:0] $end
$var wire 1 X zero $end
$var wire 1 3! eq $end
$var wire 1 4! lt $end
$var wire 1 5! ltu $end
$upscope $end
$scope module alu_opb_mux_unit $end
$var wire 1 c alu_src $end
$var wire 32 6! rs2_data [31:0] $end
$var wire 32 7! imm [31:0] $end
$var wire 32 8! op_b [31:0] $end
$upscope $end
$scope module branch_unit_ex $end
$var wire 1 e branch $end
$var wire 1 f jump $end
$var wire 3 9! funct3 [2:0] $end
$var wire 32 :! pc_current [31:0] $end
$var wire 32 ;! rs1_data [31:0] $end
$var wire 32 <! rs2_data [31:0] $end
$var wire 32 =! imm [31:0] $end
$var wire 1 g is_jalr $end
$var reg 32 >! pc_next [31:0] $end
$var wire 1 i pc_taken $end
$var reg 1 ?! condition $end
$var wire 32 @! pc_target [31:0] $end
$upscope $end
$scope module rd_mux_unit $end
$var wire 32 A! alu_result [31:0] $end
$var wire 32 B! mem_read_data [31:0] $end
$var wire 32 C! pc_current [31:0] $end
$var wire 2 D! mem_to_reg [1:0] $end
$var reg 32 E! rd_data [31:0] $end
$upscope $end
$upscope $end
$upscope $end
$enddefinitions $end
#0
$dumpvars
0!
0!!
0"
b0 "!
b0 #
b0 #!
b1111 $
b0 $!
b1010 %
b0 %!
0&
0&!
0'
b0 '!
0(
b0 (!
0)
bx )!
z*
b0 *!
z+
b0 +!
b0 ,
b0 ,!
b11111000001010010011 -
b0 -!
b100 .
b0 .!
b100 /
b1 /!
b0 0
b10 0!
b0 1
b11 1!
b0 2
b0 2!
b0 3
13!
b0 4
04!
b0 5
05!
b0 6
bz 6!
b0 7
b0 7!
b0 8
bx 8!
b0 9
b0 9!
b0 :
b0 :!
0;
bz ;!
b0 <
bz <!
0=
b0 =!
0>
b100 >!
0?
0?!
0@
bx0 @!
0A
b0 A!
b0 B
b0 B!
0C
b0 C!
b0 D
b0 D!
b0 E
b0 E!
b0 F
b0 G
b0 H
b0 I
b0 J
b0 K
b0 L
b0 M
0N
b0 O
0P
b0 Q
0R
0S
b0 T
b0 U
b0 V
b0 W
1X
b0 Y
b0 Z
b0 [
b0 \
b0 ]
b0 ^
0_
b0 `
b0 a
b0 b
zc
xd
ze
zf
zg
0h
xi
zj
zk
b0 l
b0 m
b0 n
0o
b0 p
0q
b0 r
b0 s
1t
b0 u
bz000000000000000000000000000000 v
b0 w
0x
0y
0z
b0 {
0|
0}
0~
$end
#5000
1!
1&
#10000
0!
0&
#15000
1!
1&
#20000
0!
1"
0&
1'
#25000
1!
0!!
b0 "!
b100 #
b1 #!
b11111000001010010011 $!
b0 %!
1&
b100 ,
b1000 .
b1000 /
b11111000001010010011 0
b10011 2
b11111 5
b101 7
b0 9
1;
b1 <
1=
b1 B
b100 u
bz000000000000000000000000000001 v
b11111000001010010011 w
1x
0y
0z
b1 {
1|
0}
0~
#30000
0!
0&
#35000
1!
b1000 #
1&
b1 *!
b1000 ,
b0 -!
b1100 .
b1100 /
b100 1
b11111 I
b101 K
1N
b1 O
1P
b1 Q
b0 V
b11111 l
b0 r
b0 s
b1000 u
bz000000000000000000000000000010 v
#40000
0!
0&
#45000
1!
b1100 #
1&
1&!
b1100 ,
b10000 .
b10000 /
b1000 1
b100 :!
b1000 >!
bx0 @!
b100 C!
b1 D!
b100 E
b0 E!
b101 [
1_
b1 `
0h
b101 n
1o
1q
b0 r
b0 s
b1100 u
bz000000000000000000000000000011 v
#50000
0!
0&
#55000
1!
b10000 #
1&
b101 '!
b10000 ,
b100101111001010010011 -
b10100 .
b10100 /
b1100 1
b1000 :!
b1100 >!
bx0 @!
b1000 C!
b1000 E
b0 E!
b101 ^
0h
b101 p
b0 r
b0 s
b10000 u
bz000000000000000000000000000100 v
#60000
0!
0&
#65000
1!
b10100 #
b100101111001010010011 $!
b1 %!
1&
b10100 ,
b11000 .
b11000 /
b100101111001010010011 0
b10000 1
b111 3
b101 5
b1 6
b1 8
b0 9
b0 :
b1100 :!
b10000 >!
bx0 @!
b1100 C!
b1100 E
b0 E!
0h
b10100 u
bz000000000000000000000000000101 v
b100101111001010010011 w
#70000
0!
0&
#75000
1!
b11000 #
1&
1(
b111 +!
b11000 ,
b10 -!
b11100 .
b11100 /
b10100 1
b0 2!
03!
14!
15!
b1 7!
b111 9!
b10000 :!
b1 =!
b10100 >!
bx @!
b10000 C!
b10000 E
b0 E!
b1 H
b101 I
b1 J
b111 L
b10 T
b0 U
b1 V
b0 W
1X
xd
0h
b101 l
b1 m
b1 r
b0 s
b11000 u
bz000000000000000000000000000110 v
#80000
0!
0&
#85000
1!
b11100 #
1&
b11100 ,
b100000 .
b100000 /
b11000 1
b10100 :!
b11000 >!
bx @!
b10100 C!
b10100 E
b0 E!
0h
b11100 u
bz000000000000000000000000000111 v
#90000
0!
0&
#95000
1!
b100000 #
1&
b100000 ,
b11111110000000101000110011100011 -
b100100 .
b100100 /
b11100 1
b11000 :!
b11100 >!
bx @!
b11000 C!
b11000 E
b0 E!
0h
b100000 u
bz000000000000000000000000001000 v
#100000
0!
0&
#105000
1!
0!!
b10 "!
b100100 #
b11 #!
b11111110000000101000110011100011 $!
b11111111111111111111111111111000 %!
1&
b100100 ,
b101000 .
b101000 /
b11111110000000101000110011100011 0
b100000 1
b1100011 2
b0 3
b1111111 4
b0 6
b11001 7
b11111111111111111111111111111000 8
b0 :
b11100 :!
b0 <
0=
b100000 >!
1@
bx @!
b11 B
b11100 C!
b10 D
b11100 E
b0 E!
0h
b100100 u
bz000000000000000000000000001001 v
b11111110000000101000110011100011 w
1x
0y
0z
b0 {
0|
1}
0~
#110000
0!
0&
#115000
1!
b101000 #
1&
b11 *!
b0 +!
b101000 ,
b1111111 ,!
b0 -!
b101100 .
b101100 /
b100100 1
b11111111111111111111111111111000 2!
04!
b11111111111111111111111111111000 7!
b0 9!
b100000 :!
b11111111111111111111111111111000 =!
b100100 >!
bx0 @!
b100000 C!
b100000 E
b0 E!
b11111111111111111111111111111000 H
b0 J
b11001 K
b0 L
b1111111 M
b11 O
0P
b0 Q
b0 T
b11111111111111111111111111111000 V
b11111111111111111111111111111000 W
0X
xd
0h
b0 m
b1 r
b0 s
b101000 u
bz000000000000000000000000001010 v
#120000
0!
0&
#125000
1!
b101100 #
1&
0&!
0(
b101100 ,
b110000 .
b110000 /
b101000 1
b11111111111111111111111111111000 2!
03!
15!
b100100 :!
b101000 >!
bx0 @!
b100100 C!
b0 D!
b100100 E
b0 E!
b0 U
b11111111111111111111111111111000 V
b11111111111111111111111111111000 W
b11111111111111111111111111111000 Y
b11001 [
0_
b0 `
0h
b11001 n
0o
0q
b0 r
b0 s
b101100 u
bz000000000000000000000000001011 v
#130000
0!
0&
#135000
1!
b110000 #
1&
b11001 '!
b110000 ,
b11100000010100010011 -
b110100 .
b110100 /
b101100 1
b101000 :!
b101100 >!
bx0 @!
b11111111111111111111111111111000 A!
b101000 C!
b101000 E
b0 E!
b11111111111111111111111111111000 \
b11001 ^
0h
b11001 p
b0 r
b0 s
b110000 u
bz000000000000000000000000001100 v
#140000
0!
0&
#145000
1!
0!!
b0 "!
b110100 #
b1 #!
b11100000010100010011 $!
b0 %!
1&
b110100 ,
b111000 .
b111000 /
b11100000010100010011 0
b110000 1
b10011 2
b0 4
b11100 5
b1010 7
b0 8
b0 9
b101100 :!
b1 <
1=
b110000 >!
0@
bx0 @!
b1 B
b101100 C!
b0 D
b101100 E
b0 E!
0h
b110100 u
bz000000000000000000000000001101 v
b11100000010100010011 w
1x
0y
0z
b1 {
1|
0}
0~
#150000
0!
0&
#155000
1!
b111000 #
1&
b1 *!
b111000 ,
b0 ,!
b0 -!
b111100 .
b111100 /
b110100 1
b0 2!
13!
05!
b0 7!
b110000 :!
b0 =!
b110100 >!
bx0 @!
b110000 C!
b110000 E
b0 E!
b0 H
b11100 I
b1010 K
b0 M
b1 O
1P
b1 Q
b0 V
b0 W
1X
xd
0h
b11100 l
b0 r
b0 s
b111000 u
bz000000000000000000000000001110 v
#160000
0!
0&
#165000
1!
b111100 #
1&
1&!
b111100 ,
b1000000 .
b1000000 /
b111000 1
b110100 :!
b111000 >!
bx0 @!
b110100 C!
b1 D!
b110100 E
b11111111111111111111111111111000 E!
b0 U
b0 V
b0 Y
b1010 [
1_
b1 `
b11111111111111111111111111111000 a
0h
b1010 n
1o
1q
b0 r
b0 s
b111100 u
bz000000000000000000000000001111 v
#170000
0!
0&
#175000
1!
b1000000 #
1&
b1010 '!
b1000000 ,
b11101000010110010011 -
b1000100 .
b1000100 /
b111100 1
b0 9
b0 :
b111000 :!
b111100 >!
bx0 @!
b0 A!
b111000 C!
b111000 E
b0 E!
b0 \
b1010 ^
b0 a
0h
b1010 p
b0 r
b0 s
b1000000 u
bz000000000000000000000000010000 v
#180000
0!
0&
#185000
1!
b1000100 #
b11101000010110010011 $!
b0 %!
1&
b1000100 ,
b1001000 .
b1001000 /
b11101000010110010011 0
b1000000 1
b11101 5
b1011 7
b0 9
b111100 :!
b1000000 >!
bx0 @!
b111100 C!
b111100 E
b0 E!
0h
b1000100 u
bz000000000000000000000000010001 v
b11101000010110010011 w
#190000
0!
0&
#195000
1!
b1001000 #
1&
b1001000 ,
b1001100 .
b1001100 /
b1000100 1
b1000000 :!
b1000100 >!
bx0 @!
b1000000 C!
b1000000 E
b0 E!
b11101 I
b1011 K
0h
b11101 l
b0 r
b0 s
b1001000 u
bz000000000000000000000000010010 v
#200000
0!
0&
#205000
1!
b1001100 #
1&
b1001100 ,
b1010000 .
b1010000 /
b1001000 1
b1000100 :!
b1001000 >!
bx0 @!
b1000100 C!
b1000100 E
b0 E!
b1011 [
0h
b1011 n
b0 r
b0 s
b1001100 u
bz000000000000000000000000010011 v
#210000
0!
0&
#215000
1!
b1010000 #
1&
b1011 '!
b1010000 ,
b110000000000000011101111 -
b1010100 .
b1010100 /
b1001100 1
b1001000 :!
b1001100 >!
bx0 @!
b1001000 C!
b1001000 E
b0 E!
b1011 ^
0h
b1011 p
b0 r
b0 s
b1010000 u
bz000000000000000000000000010100 v
#220000
0!
0&
#225000
1!
0!!
b11 "!
b1010100 #
b10 #!
b110000000000000011101111 $!
b1100 %!
1&
b1010100 ,
b1011000 .
b1011000 /
b110000000000000011101111 0
b1010000 1
b1101111 2
b0 5
b1100 6
b1 7
b1100 8
b0 9
b0 :
b1001100 :!
0;
b10 <
b1010000 >!
bx0 @!
1A
b10 B
b1001100 C!
b11 D
b1001100 E
b0 E!
0h
b1010100 u
bz000000000000000000000000010101 v
b110000000000000011101111 w
0x
0y
0z
b10 {
1|
0}
1~
#230000
0!
0&
#235000
1!
b1011000 #
1&
b10 *!
b1011000 ,
b1 -!
b1011100 .
b1011100 /
b1010100 1
b0 2!
b1100 7!
b1010000 :!
b1100 =!
b1010100 >!
bx0 @!
b1010000 C!
b1010000 E
b0 E!
b1100 H
b0 I
b1100 J
b1 K
0N
b10 O
b10 Q
b1 T
b0 V
xd
0h
b0 l
b1100 m
b0 r
b0 s
b1011000 u
bz000000000000000000000000010110 v
#240000
0!
0&
#245000
1!
b1011100 #
1&
b1011100 ,
b1100000 .
b1100000 /
b1011000 1
b1010100 :!
b1011000 >!
bx0 @!
b1010100 C!
b10 D!
b1010100 E
b1011000 E!
b1 [
b10 `
b1011000 a
0h
b1 n
b0 r
b0 s
b1011100 u
bz000000000000000000000000010111 v
#250000
0!
0&
#255000
1!
b1100000 #
1&
b1 '!
b1100000 ,
b1010000111100010011 -
b1100100 .
b1100100 /
b1011100 1
b0 9
b0 :
b1011000 :!
b1011100 >!
bx0 @!
b1011000 C!
b1011000 E
b1011100 E!
b1 ^
b1011100 a
0h
b1 p
b0 r
b0 s
b1100000 u
bz000000000000000000000000011000 v
#260000
0!
0&
#265000
1!
0!!
b0 "!
b1100100 #
b1 #!
b1010000111100010011 $!
b0 %!
1&
b1100100 ,
b1101000 .
b1101000 /
b1010000111100010011 0
b1100000 1
b10011 2
b1010 5
b0 6
b11110 7
b0 8
b0 9
b0 :
b1011100 :!
1;
b1 <
b1100000 >!
bx0 @!
0A
b1 B
b1011100 C!
b0 D
b1011100 E
b1100000 E!
b1100000 a
0h
b1100100 u
bz000000000000000000000000011001 v
b1010000111100010011 w
1x
0y
0z
b1 {
1|
0}
0~
#270000
0!
0&
#275000
1!
b1101000 #
1&
b1 *!
b1101000 ,
b0 -!
b1101100 .
b1101100 /
b1100100 1
b0 2!
b0 7!
b0 9
b0 :
b1100000 :!
b0 =!
b1100100 >!
bx0 @!
b1100000 C!
b1100000 E
b1100100 E!
b0 H
b1010 I
b0 J
b11110 K
1N
b1 O
b1 Q
b0 T
b0 V
b1100100 a
xd
0h
b1010 l
b0 m
b0 r
b0 s
b1101000 u
bz000000000000000000000000011010 v
#280000
0!
0&
#285000
1!
b1101100 #
1&
b1101100 ,
b1110000 .
b1110000 /
b1101000 1
b0 9
b0 :
b1100100 :!
b1101000 >!
bx0 @!
b1100100 C!
b1 D!
b1100100 E
b0 E!
b11110 [
b1 `
b0 a
0h
b11110 n
b0 r
b0 s
b1101100 u
bz000000000000000000000000011011 v
#290000
0!
0&
#295000
1!
b1110000 #
1&
b11110 '!
b1110000 ,
b11111110010111111111000001101111 -
b1110100 .
b1110100 /
b1101100 1
b0 9
b0 :
b1101000 :!
b1101100 >!
bx0 @!
b1101000 C!
b1101000 E
b0 E!
b11110 ^
0h
b11110 p
b0 r
b0 s
b1110000 u
bz000000000000000000000000011100 v
#300000
0!
0&
#305000
1!
0!!
b11 "!
b1110100 #
b10 #!
b11111110010111111111000001101111 $!
b11111111111111111111111111100100 %!
1&
b1110100 ,
b1111000 .
b1111000 /
b11111110010111111111000001101111 0
b1110000 1
b1101111 2
b111 3
b1111111 4
b11111 5
b101 6
b0 7
b11111111111111111111111111100100 8
b0 9
b0 :
b1101100 :!
0;
b10 <
b1110000 >!
bx0 @!
1A
b10 B
b1101100 C!
b11 D
b1101100 E
b0 E!
0h
b1110100 u
bz000000000000000000000000011101 v
b11111110010111111111000001101111 w
0x
0y
0z
b10 {
1|
0}
1~
#310000
0!
0&
#315000
1!
b1111000 #
1&
b10 *!
b111 +!
b1111000 ,
b1111111 ,!
b1 -!
b1111100 .
b1111100 /
b1110100 1
b0 2!
b11111111111111111111111111100100 7!
b111 9!
b1110000 :!
b11111111111111111111111111100100 =!
b1110100 >!
bx0 @!
b1110000 C!
b1110000 E
b0 E!
b11111111111111111111111111100100 H
b11111 I
b101 J
b0 K
b111 L
b1111111 M
0N
b10 O
b10 Q
b1 T
b0 V
xd
0h
b11111 l
b101 m
b0 r
b0 s
b1111000 u
bz000000000000000000000000011110 v
#320000
0!
0&
#325000
1!
b1111100 #
1&
b1111100 ,
b10000000 .
b10000000 /
b1111000 1
b1110100 :!
b1111000 >!
bx0 @!
b1110100 C!
b10 D!
b1110100 E
b1111000 E!
b0 [
b10 `
b1111000 a
0h
b0 n
b0 r
b0 s
b1111100 u
bz000000000000000000000000011111 v
#330000
0!
0&
#335000
1!
b10000000 #
1&
b0 '!
b1111000 (!
b10000000 ,
b10000001011000000001100011 -
b10000100 .
b10000100 /
b1111100 1
b0 9
b0 :
b1111000 :!
b1111100 >!
bx0 @!
b1111000 C!
b1111000 E
b1111100 E!
b0 ^
b1111100 a
0h
b0 p
b0 r
b0 s
b10000000 u
bz000000000000000000000000100000 v
#340000
0!
0&
#345000
1!
0!!
b10 "!
b10000100 #
b11 #!
b10000001011000000001100011 $!
b100000 %!
1&
b10000100 ,
b10001000 .
b10001000 /
b10000001011000000001100011 0
b10000000 1
b1100011 2
b0 3
b1 4
b1011 5
b0 6
b100000 8
b1011000 9
b0 :
b1111100 :!
1;
b0 <
0=
b10000000 >!
1@
bx0 @!
0A
b11 B
b1111100 C!
b10 D
b1111100 E
b10000000 E!
b10000000 a
0h
b10000100 u
bz000000000000000000000000100001 v
b10000001011000000001100011 w
1x
0y
0z
b0 {
0|
1}
0~
#350000
0!
0&
#355000
1!
b10001000 #
1&
b11 *!
b0 +!
b10001000 ,
b1 ,!
b0 -!
b10001100 .
b10001100 /
b10000100 1
b1111000 2!
03!
b100000 7!
b0 9!
b10000000 :!
b100000 =!
b10000100 >!
bx0 @!
b10000000 C!
b10000000 E
b10000100 E!
b1011000 F
b100000 H
b1011 I
b0 J
b0 L
b1 M
1N
b11 O
0P
b0 Q
b0 T
b1011000 U
b100000 V
b1111000 W
0X
b10000100 a
xd
0h
b1011 l
b0 m
b0 r
b0 s
b10001000 u
bz000000000000000000000000100010 v
#360000
0!
0&
#365000
1!
b10001100 #
1&
0&!
b10001100 ,
b10010000 .
b10010000 /
b10001000 1
b10000100 :!
b10001000 >!
bx0 @!
b10000100 C!
b0 D!
b10000100 E
b0 E!
b1011000 U
b100000 V
b1111000 Y
0_
b0 `
b0 a
0h
0o
0q
b0 r
b0 s
b10001100 u
bz000000000000000000000000100011 v
#370000
0!
0&
#375000
1!
b10010000 #
1&
b10010000 ,
b1010000001100010011 -
b10010100 .
b10010100 /
b10001100 1
b10001000 :!
b10001100 >!
bx0 @!
b1111000 A!
b10001000 C!
b10001000 E
b0 E!
b1111000 \
0h
b10010000 u
bz000000000000000000000000100100 v
#380000
0!
0&
#385000
1!
0!!
b0 "!
b10010100 #
b1 #!
b1010000001100010011 $!
b0 %!
1&
b10010100 ,
b10011000 .
b10011000 /
b1010000001100010011 0
b10010000 1
b10011 2
b0 4
b1010 5
b110 7
b0 8
b0 9
b10001100 :!
b1 <
1=
b10010000 >!
0@
bx0 @!
b1 B
b10001100 C!
b0 D
b10001100 E
b0 E!
0h
b10010100 u
bz000000000000000000000000100101 v
b1010000001100010011 w
1x
0y
0z
b1 {
1|
0}
0~
#390000
0!
0&
#395000
1!
b10011000 #
1&
b1 *!
b10011000 ,
b0 ,!
b0 -!
b10011100 .
b10011100 /
b10010100 1
b0 2!
13!
b0 7!
b10010000 :!
b0 =!
b10010100 >!
bx0 @!
b10010000 C!
b10010000 E
b0 E!
b0 F
b0 H
b1010 I
b110 K
b0 M
b1 O
1P
b1 Q
b0 U
b0 V
b0 W
1X
xd
0h
b1010 l
b0 r
b0 s
b10011000 u
bz000000000000000000000000100110 v
#400000
0!
0&
#405000
1!
b10011100 #
1&
1&!
b10011100 ,
b10100000 .
b10100000 /
b10011000 1
b10010100 :!
b10011000 >!
bx0 @!
b10010100 C!
b1 D!
b10010100 E
b1111000 E!
b0 U
b0 V
b0 Y
b110 [
1_
b1 `
b1111000 a
0h
b110 n
1o
1q
b0 r
b0 s
b10011100 u
bz000000000000000000000000100111 v
#410000
0!
0&
#415000
1!
b10100000 #
1&
b110 '!
b10100000 ,
b101100110100011001100011 -
b10100100 .
b10100100 /
b10011100 1
b10011000 :!
b10011100 >!
bx0 @!
b0 A!
b10011000 C!
b10011000 E
b0 E!
b0 \
b110 ^
b0 a
0h
b110 p
b0 r
b0 s
b10100000 u
bz000000000000000000000000101000 v
#420000
0!
0&
#425000
1!
0!!
b10 "!
b10100100 #
b11 #!
b101100110100011001100011 $!
b1100 %!
1&
b10100100 ,
b10101000 .
b10101000 /
b101100110100011001100011 0
b10100000 1
b1100011 2
b100 3
b110 5
b1011 6
b1100 7
b1100 8
b0 9
b1011000 :
b10011100 :!
b0 <
0=
b10100000 >!
1@
bx0 @!
b11 B
b10011100 C!
b10 D
b10011100 E
b0 E!
0h
b10100100 u
bz000000000000000000000000101001 v
b101100110100011001100011 w
1x
0y
0z
b0 {
0|
1}
0~
#430000
0!
0&
#435000
1!
b10101000 #
1&
1(
b11 *!
b100 +!
b10101000 ,
b0 -!
b10101100 .
b10101100 /
b10100100 1
b1100 2!
03!
14!
15!
b1100 7!
b100 9!
b10100000 :!
b1100 =!
b10100100 >!
bx0 @!
b10100000 C!
b10100000 E
b0 E!
b1011000 G
b1100 H
b110 I
b1011 J
b1100 K
b100 L
b11 O
0P
b0 Q
b0 U
b1100 V
b1100 W
0X
xd
0h
b110 l
b1011 m
b1 r
b0 s
b10101000 u
bz000000000000000000000000101010 v
#440000
0!
0&
#445000
1!
b10101100 #
1&
0&!
0(
b10101100 ,
b10110000 .
b10110000 /
b10101000 1
b1100 2!
03!
14!
15!
b10100100 :!
b10101000 >!
bx0 @!
b10100100 C!
b0 D!
b10100100 E
b0 E!
b0 U
b1100 V
b1100 W
b1100 Y
b1011000 Z
b1100 [
0_
b0 `
0h
b1100 n
0o
0q
b0 r
b0 s
b10101100 u
bz000000000000000000000000101011 v
#450000
0!
0&
#455000
1!
b10110000 #
1&
b1100 '!
b10110000 ,
b1000000101100110000001100110011 -
b10110100 .
b10110100 /
b10101100 1
b10101000 :!
b10101100 >!
bx0 @!
b1100 A!
b10101000 C!
b10101000 E
b0 E!
b1100 \
b1100 ^
0h
b1100 p
b0 r
b0 s
b10110000 u
bz000000000000000000000000101100 v
#460000
0!
0&
#465000
1!
0!!
b0 "!
b10110100 #
b1 #!
b1000000101100110000001100110011 $!
b10000001011 %!
1&
b10110100 ,
b10111000 .
b10111000 /
b1000000101100110000001100110011 0
b10110000 1
b110011 2
b0 3
b100000 4
b110 7
b10000001011 8
b10101100 :!
0;
b1 <
1=
b10110000 >!
0@
bx0 @!
b1 B
b10101100 C!
b0 D
b10101100 E
b0 E!
0h
b10110100 u
bz000000000000000000000000101101 v
b1000000101100110000001100110011 w
0x
0y
0z
b1 {
1|
0}
0~
#470000
0!
0&
#475000
1!
b10111000 #
1&
b1 *!
b0 +!
b10111000 ,
b100000 ,!
b1 -!
b10111100 .
b10111100 /
b10110100 1
b11111111111111111111111110101000 2!
b10000001011 7!
b0 9!
b10110000 :!
b10000001011 =!
b10110100 >!
bx @!
b10110000 C!
b10110000 E
b0 E!
b10000001011 H
b110 K
b0 L
b100000 M
0N
b1 O
1P
b1 Q
b1 T
b1011000 V
b11111111111111111111111110101000 W
xd
0h
b10111000 u
bz000000000000000000000000101110 v
#480000
0!
0&
#485000
1!
b10111100 #
1&
1&!
1(
b10111100 ,
b11000000 .
b11000000 /
b10111000 1
b11111111111111111111111101010000 2!
05!
b10110100 :!
b10111000 >!
bx @!
b10110100 C!
b1 D!
b10110100 E
b1100 E!
b11111111111111111111111110101000 U
b1011000 V
b11111111111111111111111101010000 W
b11111111111111111111111110101000 Y
b110 [
1_
b1 `
b1100 a
0h
b110 n
1o
1q
b1 r
b0 s
b10111100 u
bz000000000000000000000000101111 v
#490000
0!
0&
#495000
1!
b11000000 #
1&
b110 '!
b11000000 ,
b11111111100111111111000001101111 -
b11000100 .
b11000100 /
b10111100 1
b11111111111111111111111011111000 2!
b0 9
b1011000 :
b10111000 :!
b10111100 >!
bx @!
b11111111111111111111111110101000 A!
b10111000 C!
b10111000 E
b11111111111111111111111110101000 E!
b11111111111111111111111101010000 U
b1011000 V
b11111111111111111111111011111000 W
b11111111111111111111111101010000 Y
b11111111111111111111111110101000 \
b110 ^
b11111111111111111111111110101000 a
0h
b110 p
b1 r
b0 s
b11000000 u
bz000000000000000000000000110000 v
#500000
0!
0&
